{
  "variables": {
    "client_id": "{{env `ARM_CLIENT_ID`}}",
    "client_secret": "{{env `ARM_CLIENT_SECRET`}}",
    "tenant_id": "{{env `ARM_TENANT_ID`}}",
    "subscription_id": "{{env `ARM_SUBSCRIPTION_ID`}}",
    "resource_group_name": "{{env `AZURE_RESOURCE_GROUP_IMAGE`}}",
    "managed_image_name": "{{env `AZURE_IMAGE_NAME`}}",
    "packer_script": "{{env `PACKER_SCRIPT`}}",
    "location": "{{env `TF_VAR_location`}}"
  },
  "builders": [
    {
    "type": "azure-arm",

    "client_id": "{{user `client_id`}}",
    "client_secret": "{{user `client_secret`}}",
    "tenant_id": "{{user `tenant_id`}}",
    "subscription_id": "{{user `subscription_id`}}",

    "managed_image_resource_group_name": "{{user `resource_group_name`}}",
    "managed_image_name": "{{user `managed_image_name`}}",

    "os_type": "Linux",
    "image_publisher": "Canonical",
    "image_offer": "UbuntuServer",
    "image_sku": "18.04-LTS",

    "async_resourcegroup_delete": true,

    "azure_tags": {
      "dept": "engineering",
      "task": "immutable-image"
    },

    "location": "{{user `location`}}",
    "vm_size": "Standard_DS2_v2"
    }
  ],
  "provisioners": [{
    "script": "{{user `packer_script`}}",
    "type": "shell"  
  }]
}
